<?xml version="1.0" standalone="no"?>

<svg 
     version="1.1"
     baseProfile="full"
     xmlns="http://www.w3.org/2000/svg"
     xmlns:xlink="http://www.w3.org/1999/xlink"
     xmlns:ev="http://www.w3.org/2001/xml-events"
     x="0px"
     y="0px"
     width="400px"
     height="400px"
     viewBox="0 0 400 400"
     >
<title></title>
<desc>Creator: FreeHEP Graphics2D Driver Producer: org.freehep.graphicsio.svg.SVGGraphics2D Revision Source:  Date: Monday, June 14, 2021 2:10:22 PM AST</desc>
<g stroke-linejoin="miter" stroke-dashoffset="0" stroke-dasharray="none" stroke-width="1" stroke-miterlimit="10" stroke-linecap="square">
<g fill-opacity="1" fill-rule="nonzero" stroke="none" fill="#ffffff">
  <path d="M 0 0 L 400 0 L 400 400 L 0 400 L 0 0 z"/>
</g> <!-- drawing style -->
<clipPath id="clip1">
  <path d="M 0 0 L 0 400 L 400 400 L 400 0 z"/>
</clipPath>
<g clip-path="url(#clip1)">
<g transform="matrix(1, 0, 0, 1, 142.830078125, 12.6015625)">
<text fill-opacity="1" font-style="normal" font-family="Helvetica" font-weight="bold" stroke="none" fill="#000000" font-size="12" x="0" y="0">% terms per group</text>
</g> <!-- transform -->
</g> <!-- clip1 -->
<g fill-opacity="1" fill-rule="nonzero" stroke="none" fill="#ffffff">
  <path d="M 5 16.1328125 L 395 16.1328125 L 395 395 L 5 395 L 5 16.1328125 z"/>
</g> <!-- drawing style -->
<g stroke-width="0.5" fill="none" stroke-opacity="1" stroke="#ffffff">
  <path d="M 5 16.1328125 L 395 16.1328125 L 395 395 L 5 395 L 5 16.1328125 z"/>
</g> <!-- drawing style -->
<g fill-opacity="1" fill-rule="nonzero" stroke="none" fill="#808080">
  <path d="M 200 111.08890625 C 201.94008683563064 111.08890625 203.87971338058773 111.14866550566595 205.81612050926958 111.26809900924592 L 200 205.56640625 z"/>
</g> <!-- drawing style -->
<g fill-opacity="1" fill-rule="nonzero" stroke="none" fill="#808080">
  <path d="M 205.81612050926958 111.26809900924592 C 207.75252763795146 111.38753251282587 209.68479651505118 111.56658359249792 211.61017848127554 111.80499754746968 L 200 205.56640625 z"/>
</g> <!-- drawing style -->
<g fill-opacity="1" fill-rule="nonzero" stroke="none" fill="#808080">
  <path d="M 211.61017848127554 111.80499754746968 C 213.5355604474999 112.04341150244144 215.45314189903925 112.34107520404476 217.36019506951504 112.69756522461417 L 200 205.56640625 z"/>
</g> <!-- drawing style -->
<g fill-opacity="1" fill-rule="nonzero" stroke="none" fill="#808080">
  <path d="M 217.36019506951504 112.69756522461417 C 219.26724823999083 113.05405524518356 221.16286822270277 113.46920242834042 223.04435849153924 113.9424162257524 L 200 205.56640625 z"/>
</g> <!-- drawing style -->
<g fill-opacity="1" fill-rule="nonzero" stroke="none" fill="#808080">
  <path d="M 223.04435849153924 113.9424162257524 C 224.9258487603757 114.41563002316435 226.79231653836683 114.94668589241037 228.6411067685151 115.53482840464332 L 200 205.56640625 z"/>
</g> <!-- drawing style -->
<g fill-opacity="1" fill-rule="nonzero" stroke="none" fill="#808080">
  <path d="M 228.64110676851507 115.53482840464332 C 230.48989699866334 116.12297091687627 232.3201324203382 116.767920995399 234.12920951719676 117.46876119644996 L 200 205.56640625 z"/>
</g> <!-- drawing style -->
<g fill-opacity="1" fill-rule="nonzero" stroke="none" fill="#808080">
  <path d="M 234.12920951719678 117.46876119644998 C 235.9382866140553 118.16960139750095 237.72534696955643 118.92599916874046 239.4878484840411 119.73687853167097 L 200 205.56640625 z"/>
</g> <!-- drawing style -->
<g fill-opacity="1" fill-rule="nonzero" stroke="none" fill="#808080">
  <path d="M 239.48784848404108 119.73687853167095 C 243.0136878293823 121.35902202411582 246.43622182911997 123.19688396726487 249.7359946682454 125.24001680910538 L 200 205.56640625 z"/>
</g> <!-- drawing style -->
<g fill-opacity="1" fill-rule="nonzero" stroke="none" fill="#808080">
  <path d="M 249.7359946682454 125.24001680910538 C 253.03576750737085 127.2831496509459 256.2065087310887 129.52767089024218 259.2301938713605 131.960821270251 L 200 205.56640625 z"/>
</g> <!-- drawing style -->
<g fill-opacity="1" fill-rule="nonzero" stroke="none" fill="#808080">
  <path d="M 259.2301938713605 131.960821270251 C 262.25387901163225 134.3939716502598 265.12476225445437 137.01112753165455 267.8265237113209 139.79741137028765 L 200 205.56640625 z"/>
</g> <!-- drawing style -->
<g fill-opacity="1" fill-rule="nonzero" stroke="none" fill="#808080">
  <path d="M 267.8265237113209 139.79741137028762 C 270.52828516818727 142.58369520892072 273.05579076656977 145.53381231703378 275.3946725903689 148.63099239147886 L 200 205.56640625 z"/>
</g> <!-- drawing style -->
<g fill-opacity="1" fill-rule="nonzero" stroke="none" fill="#808080">
  <path d="M 275.3946725903689 148.63099239147886 C 280.0768807577025 154.83123803566218 283.97638491774467 161.58537736518133 287.0048510716444 168.74041140599093 L 200 205.56640625 z"/>
</g> <!-- drawing style -->
<g fill-opacity="1" fill-rule="nonzero" stroke="none" fill="#808080">
  <path d="M 287.0048510716444 168.74041140599093 C 293.85419360213336 184.92262262195814 296.0548114512136 202.6943588513766 293.3594033885572 220.05846632380104 L 200 205.56640625 z"/>
</g> <!-- drawing style -->
<g fill-opacity="1" fill-rule="nonzero" stroke="none" fill="#808080">
  <path d="M 293.3594033885572 220.05846632380104 C 290.05446400104637 241.34923988408664 279.57158704025585 260.8708383083392 263.6490801726176 275.38612122671486 L 200 205.56640625 z"/>
</g> <!-- drawing style -->
<g fill-opacity="1" fill-rule="nonzero" stroke="none" fill="#808080">
  <path d="M 263.6490801726176 275.38612122671486 C 244.75886523942992 292.60682751520983 219.69694972035944 301.4383057996609 194.18387949073036 299.86471349075407 L 200 205.56640625 z"/>
</g> <!-- drawing style -->
<g fill-opacity="1" fill-rule="nonzero" stroke="none" fill="#808080">
  <path d="M 194.18387949073036 299.86471349075407 C 143.23501004381626 296.7222947858483 103.99535391610719 253.6784424757941 105.56730881578046 202.6569661052594 C 107.13926371545375 151.63548973472467 148.95431366671968 111.08890625000001 199.99999999999997 111.08890625 L 200 205.56640625 z"/>
</g> <!-- drawing style -->
<g fill-opacity="1" fill-rule="nonzero" stroke="none" fill="#789f62">
  <path d="M 199.99999999999997 111.08890625 C 201.9400868356306 111.08890625 203.8797133805877 111.14866550566595 205.81612050926955 111.26809900924592 L 200 205.56640625 z"/>
</g> <!-- drawing style -->
<g stroke-width="0.5" fill="none" stroke-opacity="1" stroke="#808080">
  <path d="M 199.99999999999997 111.08890625 C 201.9400868356306 111.08890625 203.8797133805877 111.14866550566595 205.81612050926955 111.26809900924592 L 200 205.56640625 z"/>
</g> <!-- drawing style -->
<g fill-opacity="1" fill-rule="nonzero" stroke="none" fill="#1cf83d">
  <path d="M 205.81612050926955 111.26809900924592 C 207.7525276379514 111.38753251282587 209.68479651505112 111.5665835924979 211.61017848127548 111.80499754746967 L 200 205.56640625 z"/>
</g> <!-- drawing style -->
<g stroke-width="0.5" fill="none" stroke-opacity="1" stroke="#808080">
  <path d="M 205.81612050926955 111.26809900924592 C 207.7525276379514 111.38753251282587 209.68479651505112 111.5665835924979 211.61017848127548 111.80499754746967 L 200 205.56640625 z"/>
</g> <!-- drawing style -->
<g fill-opacity="1" fill-rule="nonzero" stroke="none" fill="#8be2c9">
  <path d="M 211.6101784812754 111.80499754746967 C 213.53556044749976 112.04341150244143 215.4531418990391 112.34107520404474 217.36019506951487 112.69756522461414 L 200 205.56640625 z"/>
</g> <!-- drawing style -->
<g stroke-width="0.5" fill="none" stroke-opacity="1" stroke="#808080">
  <path d="M 211.6101784812754 111.80499754746967 C 213.53556044749976 112.04341150244143 215.4531418990391 112.34107520404474 217.36019506951487 112.69756522461414 L 200 205.56640625 z"/>
</g> <!-- drawing style -->
<g fill-opacity="1" fill-rule="nonzero" stroke="none" fill="#02068d">
  <path d="M 217.36019506951487 112.69756522461414 C 219.26724823999064 113.05405524518352 221.1628682227026 113.4692024283404 223.04435849153904 113.94241622575234 L 200 205.56640625 z"/>
</g> <!-- drawing style -->
<g stroke-width="0.5" fill="none" stroke-opacity="1" stroke="#808080">
  <path d="M 217.36019506951487 112.69756522461414 C 219.26724823999064 113.05405524518352 221.1628682227026 113.4692024283404 223.04435849153904 113.94241622575234 L 200 205.56640625 z"/>
</g> <!-- drawing style -->
<g fill-opacity="1" fill-rule="nonzero" stroke="none" fill="#c822aa">
  <path d="M 223.04435849153904 113.94241622575234 C 224.9258487603755 114.4156300231643 226.79231653836666 114.94668589241031 228.6411067685149 115.53482840464325 L 200 205.56640625 z"/>
</g> <!-- drawing style -->
<g stroke-width="0.5" fill="none" stroke-opacity="1" stroke="#808080">
  <path d="M 223.04435849153904 113.94241622575234 C 224.9258487603755 114.4156300231643 226.79231653836666 114.94668589241031 228.6411067685149 115.53482840464325 L 200 205.56640625 z"/>
</g> <!-- drawing style -->
<g fill-opacity="1" fill-rule="nonzero" stroke="none" fill="#cb3600">
  <path d="M 228.64110676851482 115.53482840464324 C 230.48989699866306 116.12297091687617 232.32013242033796 116.76792099539891 234.12920951719647 117.46876119644986 L 200 205.56640625 z"/>
</g> <!-- drawing style -->
<g stroke-width="0.5" fill="none" stroke-opacity="1" stroke="#808080">
  <path d="M 228.64110676851482 115.53482840464324 C 230.48989699866306 116.12297091687617 232.32013242033796 116.76792099539891 234.12920951719647 117.46876119644986 L 200 205.56640625 z"/>
</g> <!-- drawing style -->
<g fill-opacity="1" fill-rule="nonzero" stroke="none" fill="#ce51ee">
  <path d="M 234.12920951719647 117.46876119644986 C 235.93828661405502 118.16960139750083 237.72534696955614 118.92599916874033 239.4878484840408 119.73687853167081 L 200 205.56640625 z"/>
</g> <!-- drawing style -->
<g stroke-width="0.5" fill="none" stroke-opacity="1" stroke="#808080">
  <path d="M 234.12920951719647 117.46876119644986 C 235.93828661405502 118.16960139750083 237.72534696955614 118.92599916874033 239.4878484840408 119.73687853167081 L 200 205.56640625 z"/>
</g> <!-- drawing style -->
<g fill-opacity="1" fill-rule="nonzero" stroke="none" fill="#4d1a74">
  <path d="M 239.4878484840408 119.73687853167081 C 243.013687829382 121.35902202411566 246.43622182911966 123.1968839672647 249.7359946682451 125.2400168091052 L 200 205.56640625 z"/>
</g> <!-- drawing style -->
<g stroke-width="0.5" fill="none" stroke-opacity="1" stroke="#808080">
  <path d="M 239.4878484840408 119.73687853167081 C 243.013687829382 121.35902202411566 246.43622182911966 123.1968839672647 249.7359946682451 125.2400168091052 L 200 205.56640625 z"/>
</g> <!-- drawing style -->
<g fill-opacity="1" fill-rule="nonzero" stroke="none" fill="#9c0e2d">
  <path d="M 249.7359946682451 125.2400168091052 C 253.03576750737054 127.2831496509457 256.20650873108843 129.52767089024195 259.23019387136014 131.96082127025073 L 200 205.56640625 z"/>
</g> <!-- drawing style -->
<g stroke-width="0.5" fill="none" stroke-opacity="1" stroke="#808080">
  <path d="M 249.7359946682451 125.2400168091052 C 253.03576750737054 127.2831496509457 256.20650873108843 129.52767089024195 259.23019387136014 131.96082127025073 L 200 205.56640625 z"/>
</g> <!-- drawing style -->
<g fill-opacity="1" fill-rule="nonzero" stroke="none" fill="#455d1c">
  <path d="M 259.23019387136026 131.9608212702508 C 262.25387901163197 134.39397165025957 265.12476225445414 137.01112753165427 267.8265237113206 139.79741137028736 L 200 205.56640625 z"/>
</g> <!-- drawing style -->
<g stroke-width="0.5" fill="none" stroke-opacity="1" stroke="#808080">
  <path d="M 259.23019387136026 131.9608212702508 C 262.25387901163197 134.39397165025957 265.12476225445414 137.01112753165427 267.8265237113206 139.79741137028736 L 200 205.56640625 z"/>
</g> <!-- drawing style -->
<g fill-opacity="1" fill-rule="nonzero" stroke="none" fill="#7774fd">
  <path d="M 267.8265237113206 139.79741137028736 C 270.52828516818704 142.58369520892046 273.05579076656954 145.53381231703347 275.3946725903686 148.63099239147851 L 200 205.56640625 z"/>
</g> <!-- drawing style -->
<g stroke-width="0.5" fill="none" stroke-opacity="1" stroke="#808080">
  <path d="M 267.8265237113206 139.79741137028736 C 270.52828516818704 142.58369520892046 273.05579076656954 145.53381231703347 275.3946725903686 148.63099239147851 L 200 205.56640625 z"/>
</g> <!-- drawing style -->
<g fill-opacity="1" fill-rule="nonzero" stroke="none" fill="#98e702">
  <path d="M 275.3946725903686 148.63099239147851 C 280.07688075770227 154.8312380356618 283.97638491774444 161.58537736518102 287.0048510716442 168.74041140599059 L 200 205.56640625 z"/>
</g> <!-- drawing style -->
<g stroke-width="0.5" fill="none" stroke-opacity="1" stroke="#808080">
  <path d="M 275.3946725903686 148.63099239147851 C 280.07688075770227 154.8312380356618 283.97638491774444 161.58537736518102 287.0048510716442 168.74041140599059 L 200 205.56640625 z"/>
</g> <!-- drawing style -->
<g fill-opacity="1" fill-rule="nonzero" stroke="none" fill="#71dab9">
  <path d="M 287.0048510716443 168.74041140599064 C 293.8541936021333 184.92262262195783 296.0548114512136 202.69435885137622 293.3594033885572 220.05846632380067 L 200 205.56640625 z"/>
</g> <!-- drawing style -->
<g stroke-width="0.5" fill="none" stroke-opacity="1" stroke="#808080">
  <path d="M 287.0048510716443 168.74041140599064 C 293.8541936021333 184.92262262195783 296.0548114512136 202.69435885137622 293.3594033885572 220.05846632380067 L 200 205.56640625 z"/>
</g> <!-- drawing style -->
<g fill-opacity="1" fill-rule="nonzero" stroke="none" fill="#61b34b">
  <path d="M 293.3594033885572 220.05846632380067 C 290.0544640010465 241.34923988408627 279.5715870402561 260.87083830833893 263.64908017261786 275.38612122671464 L 200 205.56640625 z"/>
</g> <!-- drawing style -->
<g stroke-width="0.5" fill="none" stroke-opacity="1" stroke="#808080">
  <path d="M 293.3594033885572 220.05846632380067 C 290.0544640010465 241.34923988408627 279.5715870402561 260.87083830833893 263.64908017261786 275.38612122671464 L 200 205.56640625 z"/>
</g> <!-- drawing style -->
<g fill-opacity="1" fill-rule="nonzero" stroke="none" fill="#6eee80">
  <path d="M 263.64908017261786 275.38612122671464 C 244.75886523943026 292.60682751520966 219.69694972035987 301.43830579966084 194.1838794907308 299.8647134907541 L 200 205.56640625 z"/>
</g> <!-- drawing style -->
<g stroke-width="0.5" fill="none" stroke-opacity="1" stroke="#808080">
  <path d="M 263.64908017261786 275.38612122671464 C 244.75886523943026 292.60682751520966 219.69694972035987 301.43830579966084 194.1838794907308 299.8647134907541 L 200 205.56640625 z"/>
</g> <!-- drawing style -->
<g fill-opacity="1" fill-rule="nonzero" stroke="none" fill="#fed31a">
  <path d="M 194.1838794907307 299.8647134907541 C 143.2350100438166 296.7222947858485 103.99535391610733 253.67844247579444 105.56730881578045 202.6569661052597 C 107.13926371545357 151.63548973472498 148.95431366671932 111.08890625000019 199.99999999999963 111.08890625 L 200 205.56640625 z"/>
</g> <!-- drawing style -->
<g stroke-width="0.5" fill="none" stroke-opacity="1" stroke="#808080">
  <path d="M 194.1838794907307 299.8647134907541 C 143.2350100438166 296.7222947858485 103.99535391610733 253.67844247579444 105.56730881578045 202.6569661052597 C 107.13926371545357 151.63548973472498 148.95431366671932 111.08890625000019 199.99999999999963 111.08890625 L 200 205.56640625 z"/>
</g> <!-- drawing style -->
<g stroke-width="0.5" fill="none" stroke-opacity="1" stroke="#000000">
  <path d="M 90.80231475830078 202.50384521484375 C 100.55000305175781 202.50384521484375 100.59716796875 202.50384521484375 115.01057434082031 202.94790649414062"/>
</g> <!-- drawing style -->
<g fill-opacity="1" fill-rule="nonzero" stroke="none" fill="#ffffff">
  <path d="M 39.90583038330078 174.23822021484375 L 92.80231475830078 174.23822021484375 L 92.80231475830078 234.76947021484375 L 39.90583038330078 234.76947021484375 L 39.90583038330078 174.23822021484375 z"/>
</g> <!-- drawing style -->
<g fill-opacity="1" fill-rule="nonzero" stroke="none" fill="#ffffff">
  <path d="M 37.90583038330078 172.23822021484375 L 90.80231475830078 172.23822021484375 L 90.80231475830078 232.76947021484375 L 37.90583038330078 232.76947021484375 L 37.90583038330078 172.23822021484375 z"/>
</g> <!-- drawing style -->
<g stroke-width="0.5" fill="none" stroke-opacity="1" stroke="#ffffff">
  <path d="M 37.90583038330078 172.23822021484375 L 90.80231475830078 172.23822021484375 L 90.80231475830078 232.76947021484375 L 37.90583038330078 232.76947021484375 L 37.90583038330078 172.23822021484375 z"/>
</g> <!-- drawing style -->
<clipPath id="clip2">
  <path d="M 5 16.1328125 L 5 395 L 395 395 L 395 16.1328125 z"/>
</clipPath>
<g clip-path="url(#clip2)">
<g transform="matrix(1, 0, 0, 1, 46.87848663330078, 185.83978271484375)">
<text fill-opacity="1" font-style="normal" font-family="Helvetica" font-weight="normal" stroke="none" fill="#000000" font-size="12" x="0" y="0">T cell </text>
</g> <!-- transform -->
</g> <!-- clip2 -->
<clipPath id="clip3">
  <path d="M 5 16.1328125 L 5 395 L 395 395 L 395 16.1328125 z"/>
</clipPath>
<g clip-path="url(#clip3)">
<g transform="matrix(1, 0, 0, 1, 39.90583038330078, 199.97259521484375)">
<text fill-opacity="1" font-style="normal" font-family="Helvetica" font-weight="normal" stroke="none" fill="#000000" font-size="12" x="0" y="0">activatio</text>
</g> <!-- transform -->
</g> <!-- clip3 -->
<clipPath id="clip4">
  <path d="M 5 16.1328125 L 5 395 L 395 395 L 395 16.1328125 z"/>
</clipPath>
<g clip-path="url(#clip4)">
<g transform="matrix(1, 0, 0, 1, 41.65778350830078, 214.10540771484375)">
<text fill-opacity="1" font-style="normal" font-family="Helvetica" font-weight="normal" stroke="none" fill="#000000" font-size="12" x="0" y="0">n 49.02</text>
</g> <!-- transform -->
</g> <!-- clip4 -->
<clipPath id="clip5">
  <path d="M 5 16.1328125 L 5 395 L 395 395 L 395 16.1328125 z"/>
</clipPath>
<g clip-path="url(#clip5)">
<g transform="matrix(1, 0, 0, 1, 52.66168975830078, 228.23822021484375)">
<text fill-opacity="1" font-style="normal" font-family="Helvetica" font-weight="normal" stroke="none" fill="#000000" font-size="12" x="0" y="0">% **</text>
</g> <!-- transform -->
</g> <!-- clip5 -->
<g stroke-width="0.5" fill="none" stroke-opacity="1" stroke="#000000">
  <path d="M 304.4751281738281 90.84062194824219 C 299.45001220703125 106.16357421875 203.06256103515625 106.16357421875 202.61849975585938 120.57698059082031"/>
</g> <!-- drawing style -->
<g fill-opacity="1" fill-rule="nonzero" stroke="none" fill="#ffffff">
  <path d="M 306.4751281738281 48.44218444824219 L 361.0415344238281 48.44218444824219 L 361.0415344238281 137.2390594482422 L 306.4751281738281 137.2390594482422 L 306.4751281738281 48.44218444824219 z"/>
</g> <!-- drawing style -->
<g fill-opacity="1" fill-rule="nonzero" stroke="none" fill="#ffffff">
  <path d="M 304.4751281738281 46.44218444824219 L 359.0415344238281 46.44218444824219 L 359.0415344238281 135.2390594482422 L 304.4751281738281 135.2390594482422 L 304.4751281738281 46.44218444824219 z"/>
</g> <!-- drawing style -->
<g stroke-width="0.5" fill="none" stroke-opacity="1" stroke="#ffffff">
  <path d="M 304.4751281738281 46.44218444824219 L 359.0415344238281 46.44218444824219 L 359.0415344238281 135.2390594482422 L 304.4751281738281 135.2390594482422 L 304.4751281738281 46.44218444824219 z"/>
</g> <!-- drawing style -->
<clipPath id="clip6">
  <path d="M 5 16.1328125 L 5 395 L 395 395 L 395 16.1328125 z"/>
</clipPath>
<g clip-path="url(#clip6)">
<g transform="matrix(1, 0, 0, 1, 307.0259094238281, 60.04374694824219)">
<text fill-opacity="1" font-style="normal" font-family="Helvetica" font-weight="normal" stroke="none" fill="#000000" font-size="12" x="0" y="0">Cysteine</text>
</g> <!-- transform -->
</g> <!-- clip6 -->
<clipPath id="clip7">
  <path d="M 5 16.1328125 L 5 395 L 395 395 L 395 16.1328125 z"/>
</clipPath>
<g clip-path="url(#clip7)">
<g transform="matrix(1, 0, 0, 1, 317.1479797363281, 74.17655944824219)">
<text fill-opacity="1" font-style="normal" font-family="Helvetica" font-weight="normal" stroke="none" fill="#000000" font-size="12" x="0" y="0">&#x00a0;and </text>
</g> <!-- transform -->
</g> <!-- clip7 -->
<clipPath id="clip8">
  <path d="M 5 16.1328125 L 5 395 L 395 395 L 395 16.1328125 z"/>
</clipPath>
<g clip-path="url(#clip8)">
<g transform="matrix(1, 0, 0, 1, 307.7026672363281, 88.30937194824219)">
<text fill-opacity="1" font-style="normal" font-family="Helvetica" font-weight="normal" stroke="none" fill="#000000" font-size="12" x="0" y="0">methion</text>
</g> <!-- transform -->
</g> <!-- clip8 -->
<clipPath id="clip9">
  <path d="M 5 16.1328125 L 5 395 L 395 395 L 395 16.1328125 z"/>
</clipPath>
<g clip-path="url(#clip9)">
<g transform="matrix(1, 0, 0, 1, 306.5571594238281, 102.44218444824219)">
<text fill-opacity="1" font-style="normal" font-family="Helvetica" font-weight="normal" stroke="none" fill="#000000" font-size="12" x="0" y="0">ine meta</text>
</g> <!-- transform -->
</g> <!-- clip9 -->
<clipPath id="clip10">
  <path d="M 5 16.1328125 L 5 395 L 395 395 L 395 16.1328125 z"/>
</clipPath>
<g clip-path="url(#clip10)">
<g transform="matrix(1, 0, 0, 1, 306.4751281738281, 116.57499694824219)">
<text fill-opacity="1" font-style="normal" font-family="Helvetica" font-weight="normal" stroke="none" fill="#000000" font-size="12" x="0" y="0">bolism 0</text>
</g> <!-- transform -->
</g> <!-- clip10 -->
<clipPath id="clip11">
  <path d="M 5 16.1328125 L 5 395 L 395 395 L 395 16.1328125 z"/>
</clipPath>
<g clip-path="url(#clip11)">
<g transform="matrix(1, 0, 0, 1, 313.4712219238281, 130.7078094482422)">
<text fill-opacity="1" font-style="normal" font-family="Helvetica" font-weight="normal" stroke="none" fill="#000000" font-size="12" x="0" y="0">.98% *</text>
</g> <!-- transform -->
</g> <!-- clip11 -->
<g stroke-width="0.5" fill="none" stroke-opacity="1" stroke="#000000">
  <path d="M 304.7748107910156 99.15412902832031 C 299.45001220703125 106.54064178466797 209.17608642578125 106.54064178466797 207.84555053710938 120.89937591552734"/>
</g> <!-- drawing style -->
<g fill-opacity="1" fill-rule="nonzero" stroke="none" fill="#ffffff">
  <path d="M 306.7748107910156 42.62287902832031 L 361.2474670410156 42.62287902832031 L 361.2474670410156 159.6853790283203 L 306.7748107910156 159.6853790283203 L 306.7748107910156 42.62287902832031 z"/>
</g> <!-- drawing style -->
<g fill-opacity="1" fill-rule="nonzero" stroke="none" fill="#ffffff">
  <path d="M 304.7748107910156 40.62287902832031 L 359.2474670410156 40.62287902832031 L 359.2474670410156 157.6853790283203 L 304.7748107910156 157.6853790283203 L 304.7748107910156 40.62287902832031 z"/>
</g> <!-- drawing style -->
<g stroke-width="0.5" fill="none" stroke-opacity="1" stroke="#ffffff">
  <path d="M 304.7748107910156 40.62287902832031 L 359.2474670410156 40.62287902832031 L 359.2474670410156 157.6853790283203 L 304.7748107910156 157.6853790283203 L 304.7748107910156 40.62287902832031 z"/>
</g> <!-- drawing style -->
<clipPath id="clip12">
  <path d="M 5 16.1328125 L 5 395 L 395 395 L 395 16.1328125 z"/>
</clipPath>
<g clip-path="url(#clip12)">
<g transform="matrix(1, 0, 0, 1, 315.4144592285156, 54.22444152832031)">
<text fill-opacity="1" font-style="normal" font-family="Helvetica" font-weight="normal" stroke="none" fill="#000000" font-size="12" x="0" y="0">TP53 </text>
</g> <!-- transform -->
</g> <!-- clip12 -->
<clipPath id="clip13">
  <path d="M 5 16.1328125 L 5 395 L 395 395 L 395 16.1328125 z"/>
</clipPath>
<g clip-path="url(#clip13)">
<g transform="matrix(1, 0, 0, 1, 306.7748107910156, 68.35725402832031)">
<text fill-opacity="1" font-style="normal" font-family="Helvetica" font-weight="normal" stroke="none" fill="#000000" font-size="12" x="0" y="0">Regulate</text>
</g> <!-- transform -->
</g> <!-- clip13 -->
<clipPath id="clip14">
  <path d="M 5 16.1328125 L 5 395 L 395 395 L 395 16.1328125 z"/>
</clipPath>
<g clip-path="url(#clip14)">
<g transform="matrix(1, 0, 0, 1, 307.6361389160156, 82.49006652832031)">
<text fill-opacity="1" font-style="normal" font-family="Helvetica" font-weight="normal" stroke="none" fill="#000000" font-size="12" x="0" y="0">s Transc</text>
</g> <!-- transform -->
</g> <!-- clip14 -->
<clipPath id="clip15">
  <path d="M 5 16.1328125 L 5 395 L 395 395 L 395 16.1328125 z"/>
</clipPath>
<g clip-path="url(#clip15)">
<g transform="matrix(1, 0, 0, 1, 307.0736389160156, 96.62287902832031)">
<text fill-opacity="1" font-style="normal" font-family="Helvetica" font-weight="normal" stroke="none" fill="#000000" font-size="12" x="0" y="0">ription o</text>
</g> <!-- transform -->
</g> <!-- clip15 -->
<clipPath id="clip16">
  <path d="M 5 16.1328125 L 5 395 L 395 395 L 395 16.1328125 z"/>
</clipPath>
<g clip-path="url(#clip16)">
<g transform="matrix(1, 0, 0, 1, 315.0453186035156, 110.75569152832031)">
<text fill-opacity="1" font-style="normal" font-family="Helvetica" font-weight="normal" stroke="none" fill="#000000" font-size="12" x="0" y="0">f Cell </text>
</g> <!-- transform -->
</g> <!-- clip16 -->
<clipPath id="clip17">
  <path d="M 5 16.1328125 L 5 395 L 395 395 L 395 16.1328125 z"/>
</clipPath>
<g clip-path="url(#clip17)">
<g transform="matrix(1, 0, 0, 1, 314.6761779785156, 124.88850402832031)">
<text fill-opacity="1" font-style="normal" font-family="Helvetica" font-weight="normal" stroke="none" fill="#000000" font-size="12" x="0" y="0">Cycle </text>
</g> <!-- transform -->
</g> <!-- clip17 -->
<clipPath id="clip18">
  <path d="M 5 16.1328125 L 5 395 L 395 395 L 395 16.1328125 z"/>
</clipPath>
<g clip-path="url(#clip18)">
<g transform="matrix(1, 0, 0, 1, 312.3089904785156, 139.0213165283203)">
<text fill-opacity="1" font-style="normal" font-family="Helvetica" font-weight="normal" stroke="none" fill="#000000" font-size="12" x="0" y="0">Genes </text>
</g> <!-- transform -->
</g> <!-- clip18 -->
<clipPath id="clip19">
  <path d="M 5 16.1328125 L 5 395 L 395 395 L 395 16.1328125 z"/>
</clipPath>
<g clip-path="url(#clip19)">
<g transform="matrix(1, 0, 0, 1, 309.9300842285156, 153.1541290283203)">
<text fill-opacity="1" font-style="normal" font-family="Helvetica" font-weight="normal" stroke="none" fill="#000000" font-size="12" x="0" y="0">0.98% *</text>
</g> <!-- transform -->
</g> <!-- clip19 -->
<g stroke-width="0.5" fill="none" stroke-opacity="1" stroke="#000000">
  <path d="M 305.0727844238281 107.46763610839844 C 299.45001220703125 107.29335021972656 215.2548065185547 107.29335021972656 213.0428466796875 121.5429458618164"/>
</g> <!-- drawing style -->
<g fill-opacity="1" fill-rule="nonzero" stroke="none" fill="#ffffff">
  <path d="M 307.0727844238281 65.06919860839844 L 360.2622375488281 65.06919860839844 L 360.2622375488281 153.86607360839844 L 307.0727844238281 153.86607360839844 L 307.0727844238281 65.06919860839844 z"/>
</g> <!-- drawing style -->
<g fill-opacity="1" fill-rule="nonzero" stroke="none" fill="#ffffff">
  <path d="M 305.0727844238281 63.06919860839844 L 358.2622375488281 63.06919860839844 L 358.2622375488281 151.86607360839844 L 305.0727844238281 151.86607360839844 L 305.0727844238281 63.06919860839844 z"/>
</g> <!-- drawing style -->
<g stroke-width="0.5" fill="none" stroke-opacity="1" stroke="#ffffff">
  <path d="M 305.0727844238281 63.06919860839844 L 358.2622375488281 63.06919860839844 L 358.2622375488281 151.86607360839844 L 305.0727844238281 151.86607360839844 L 305.0727844238281 63.06919860839844 z"/>
</g> <!-- drawing style -->
<clipPath id="clip20">
  <path d="M 5 16.1328125 L 5 395 L 395 395 L 395 16.1328125 z"/>
</clipPath>
<g clip-path="url(#clip20)">
<g transform="matrix(1, 0, 0, 1, 307.0727844238281, 76.67076110839844)">
<text fill-opacity="1" font-style="normal" font-family="Helvetica" font-weight="normal" stroke="none" fill="#000000" font-size="12" x="0" y="0">Arginine</text>
</g> <!-- transform -->
</g> <!-- clip20 -->
<clipPath id="clip21">
  <path d="M 5 16.1328125 L 5 395 L 395 395 L 395 16.1328125 z"/>
</clipPath>
<g clip-path="url(#clip21)">
<g transform="matrix(1, 0, 0, 1, 317.0571594238281, 90.80357360839844)">
<text fill-opacity="1" font-style="normal" font-family="Helvetica" font-weight="normal" stroke="none" fill="#000000" font-size="12" x="0" y="0">&#x00a0;and </text>
</g> <!-- transform -->
</g> <!-- clip21 -->
<clipPath id="clip22">
  <path d="M 5 16.1328125 L 5 395 L 395 395 L 395 16.1328125 z"/>
</clipPath>
<g clip-path="url(#clip22)">
<g transform="matrix(1, 0, 0, 1, 309.3169250488281, 104.93638610839844)">
<text fill-opacity="1" font-style="normal" font-family="Helvetica" font-weight="normal" stroke="none" fill="#000000" font-size="12" x="0" y="0">proline </text>
</g> <!-- transform -->
</g> <!-- clip22 -->
<clipPath id="clip23">
  <path d="M 5 16.1328125 L 5 395 L 395 395 L 395 16.1328125 z"/>
</clipPath>
<g clip-path="url(#clip23)">
<g transform="matrix(1, 0, 0, 1, 307.9692687988281, 119.06919860839844)">
<text fill-opacity="1" font-style="normal" font-family="Helvetica" font-weight="normal" stroke="none" fill="#000000" font-size="12" x="0" y="0">metabol</text>
</g> <!-- transform -->
</g> <!-- clip23 -->
<clipPath id="clip24">
  <path d="M 5 16.1328125 L 5 395 L 395 395 L 395 16.1328125 z"/>
</clipPath>
<g clip-path="url(#clip24)">
<g transform="matrix(1, 0, 0, 1, 309.8882141113281, 133.20201110839844)">
<text fill-opacity="1" font-style="normal" font-family="Helvetica" font-weight="normal" stroke="none" fill="#000000" font-size="12" x="0" y="0">ism 0.9</text>
</g> <!-- transform -->
</g> <!-- clip24 -->
<clipPath id="clip25">
  <path d="M 5 16.1328125 L 5 395 L 395 395 L 395 16.1328125 z"/>
</clipPath>
<g clip-path="url(#clip25)">
<g transform="matrix(1, 0, 0, 1, 319.0727844238281, 147.33482360839844)">
<text fill-opacity="1" font-style="normal" font-family="Helvetica" font-weight="normal" stroke="none" fill="#000000" font-size="12" x="0" y="0">8% *</text>
</g> <!-- transform -->
</g> <!-- clip25 -->
<g stroke-width="0.5" fill="none" stroke-opacity="1" stroke="#000000">
  <path d="M 305.367919921875 80.44910430908203 C 299.45001220703125 108.41883850097656 221.27565002441406 108.41883850097656 218.190673828125 122.50524139404297"/>
</g> <!-- drawing style -->
<g fill-opacity="1" fill-rule="nonzero" stroke="none" fill="#ffffff">
  <path d="M 307.367919921875 59.24988555908203 L 360.100341796875 59.24988555908203 L 360.100341796875 105.64832305908203 L 307.367919921875 105.64832305908203 L 307.367919921875 59.24988555908203 z"/>
</g> <!-- drawing style -->
<g fill-opacity="1" fill-rule="nonzero" stroke="none" fill="#ffffff">
  <path d="M 305.367919921875 57.24988555908203 L 358.100341796875 57.24988555908203 L 358.100341796875 103.64832305908203 L 305.367919921875 103.64832305908203 L 305.367919921875 57.24988555908203 z"/>
</g> <!-- drawing style -->
<g stroke-width="0.5" fill="none" stroke-opacity="1" stroke="#ffffff">
  <path d="M 305.367919921875 57.24988555908203 L 358.100341796875 57.24988555908203 L 358.100341796875 103.64832305908203 L 305.367919921875 103.64832305908203 L 305.367919921875 57.24988555908203 z"/>
</g> <!-- drawing style -->
<clipPath id="clip26">
  <path d="M 5 16.1328125 L 5 395 L 395 395 L 395 16.1328125 z"/>
</clipPath>
<g clip-path="url(#clip26)">
<g transform="matrix(1, 0, 0, 1, 307.367919921875, 70.85144805908203)">
<text fill-opacity="1" font-style="normal" font-family="Helvetica" font-weight="normal" stroke="none" fill="#000000" font-size="12" x="0" y="0">Apoptos</text>
</g> <!-- transform -->
</g> <!-- clip26 -->
<clipPath id="clip27">
  <path d="M 5 16.1328125 L 5 395 L 395 395 L 395 16.1328125 z"/>
</clipPath>
<g clip-path="url(#clip27)">
<g transform="matrix(1, 0, 0, 1, 307.751708984375, 84.98426055908203)">
<text fill-opacity="1" font-style="normal" font-family="Helvetica" font-weight="normal" stroke="none" fill="#000000" font-size="12" x="0" y="0">is 0.98%</text>
</g> <!-- transform -->
</g> <!-- clip27 -->
<clipPath id="clip28">
  <path d="M 5 16.1328125 L 5 395 L 395 395 L 395 16.1328125 z"/>
</clipPath>
<g clip-path="url(#clip28)">
<g transform="matrix(1, 0, 0, 1, 324.052490234375, 99.11707305908203)">
<text fill-opacity="1" font-style="normal" font-family="Helvetica" font-weight="normal" stroke="none" fill="#000000" font-size="12" x="0" y="0">&#x00a0;**</text>
</g> <!-- transform -->
</g> <!-- clip28 -->
<g stroke-width="0.5" fill="none" stroke-opacity="1" stroke="#000000">
  <path d="M 305.65911865234375 53.430580139160156 C 299.45001220703125 109.91284942626953 227.21578979492188 109.91284942626953 223.26950073242188 123.7826156616211"/>
</g> <!-- drawing style -->
<g fill-opacity="1" fill-rule="nonzero" stroke="none" fill="#ffffff">
  <path d="M 307.65911865234375 11.032142639160156 L 361.01263427734375 11.032142639160156 L 361.01263427734375 99.82901763916016 L 307.65911865234375 99.82901763916016 L 307.65911865234375 11.032142639160156 z"/>
</g> <!-- drawing style -->
<g fill-opacity="1" fill-rule="nonzero" stroke="none" fill="#ffffff">
  <path d="M 305.65911865234375 9.032142639160156 L 359.01263427734375 9.032142639160156 L 359.01263427734375 97.82901763916016 L 305.65911865234375 97.82901763916016 L 305.65911865234375 9.032142639160156 z"/>
</g> <!-- drawing style -->
<g stroke-width="0.5" fill="none" stroke-opacity="1" stroke="#ffffff">
  <path d="M 305.65911865234375 9.032142639160156 L 359.01263427734375 9.032142639160156 L 359.01263427734375 97.82901763916016 L 305.65911865234375 97.82901763916016 L 305.65911865234375 9.032142639160156 z"/>
</g> <!-- drawing style -->
<clipPath id="clip29">
  <path d="M 5 16.1328125 L 5 395 L 395 395 L 395 16.1328125 z"/>
</clipPath>
<g clip-path="url(#clip29)">
<g transform="matrix(1, 0, 0, 1, 308.36224365234375, 22.633705139160156)">
<text fill-opacity="1" font-style="normal" font-family="Helvetica" font-weight="normal" stroke="none" fill="#000000" font-size="12" x="0" y="0">Nuclear </text>
</g> <!-- transform -->
</g> <!-- clip29 -->
<clipPath id="clip30">
  <path d="M 5 16.1328125 L 5 395 L 395 395 L 395 16.1328125 z"/>
</clipPath>
<g clip-path="url(#clip30)">
<g transform="matrix(1, 0, 0, 1, 309.07708740234375, 36.766517639160156)">
<text fill-opacity="1" font-style="normal" font-family="Helvetica" font-weight="normal" stroke="none" fill="#000000" font-size="12" x="0" y="0">Recepto</text>
</g> <!-- transform -->
</g> <!-- clip30 -->
<clipPath id="clip31">
  <path d="M 5 16.1328125 L 5 395 L 395 395 L 395 16.1328125 z"/>
</clipPath>
<g clip-path="url(#clip31)">
<g transform="matrix(1, 0, 0, 1, 307.65911865234375, 50.899330139160156)">
<text fill-opacity="1" font-style="normal" font-family="Helvetica" font-weight="normal" stroke="none" fill="#000000" font-size="12" x="0" y="0">r transcr</text>
</g> <!-- transform -->
</g> <!-- clip31 -->
<clipPath id="clip32">
  <path d="M 5 16.1328125 L 5 395 L 395 395 L 395 16.1328125 z"/>
</clipPath>
<g clip-path="url(#clip32)">
<g transform="matrix(1, 0, 0, 1, 309.76263427734375, 65.03214263916016)">
<text fill-opacity="1" font-style="normal" font-family="Helvetica" font-weight="normal" stroke="none" fill="#000000" font-size="12" x="0" y="0">iption p</text>
</g> <!-- transform -->
</g> <!-- clip32 -->
<clipPath id="clip33">
  <path d="M 5 16.1328125 L 5 395 L 395 395 L 395 16.1328125 z"/>
</clipPath>
<g clip-path="url(#clip33)">
<g transform="matrix(1, 0, 0, 1, 310.08489990234375, 79.16495513916016)">
<text fill-opacity="1" font-style="normal" font-family="Helvetica" font-weight="normal" stroke="none" fill="#000000" font-size="12" x="0" y="0">athway </text>
</g> <!-- transform -->
</g> <!-- clip33 -->
<clipPath id="clip34">
  <path d="M 5 16.1328125 L 5 395 L 395 395 L 395 16.1328125 z"/>
</clipPath>
<g clip-path="url(#clip34)">
<g transform="matrix(1, 0, 0, 1, 310.25482177734375, 93.29776763916016)">
<text fill-opacity="1" font-style="normal" font-family="Helvetica" font-weight="normal" stroke="none" fill="#000000" font-size="12" x="0" y="0">0.98% *</text>
</g> <!-- transform -->
</g> <!-- clip34 -->
<g stroke-width="0.5" fill="none" stroke-opacity="1" stroke="#000000">
  <path d="M 305.9452209472656 33.478458404541016 C 299.45001220703125 111.76969909667969 233.0526885986328 111.76969909667969 228.26004028320312 125.37022399902344"/>
</g> <!-- drawing style -->
<g fill-opacity="1" fill-rule="nonzero" stroke="none" fill="#ffffff">
  <path d="M 307.9452209472656 5.212833404541016 L 362.0018615722656 5.212833404541016 L 362.0018615722656 65.74408340454102 L 307.9452209472656 65.74408340454102 L 307.9452209472656 5.212833404541016 z"/>
</g> <!-- drawing style -->
<g fill-opacity="1" fill-rule="nonzero" stroke="none" fill="#ffffff">
  <path d="M 305.9452209472656 3.2128334045410156 L 360.0018615722656 3.2128334045410156 L 360.0018615722656 63.744083404541016 L 305.9452209472656 63.744083404541016 L 305.9452209472656 3.2128334045410156 z"/>
</g> <!-- drawing style -->
<g stroke-width="0.5" fill="none" stroke-opacity="1" stroke="#ffffff">
  <path d="M 305.9452209472656 3.2128334045410156 L 360.0018615722656 3.2128334045410156 L 360.0018615722656 63.744083404541016 L 305.9452209472656 63.744083404541016 L 305.9452209472656 3.2128334045410156 z"/>
</g> <!-- drawing style -->
<clipPath id="clip35">
  <path d="M 5 16.1328125 L 5 395 L 395 395 L 395 16.1328125 z"/>
</clipPath>
<g clip-path="url(#clip35)">
<g transform="matrix(1, 0, 0, 1, 309.3631896972656, 16.814395904541016)">
<text fill-opacity="1" font-style="normal" font-family="Helvetica" font-weight="normal" stroke="none" fill="#000000" font-size="12" x="0" y="0">Recyclin</text>
</g> <!-- transform -->
</g> <!-- clip35 -->
<clipPath id="clip36">
  <path d="M 5 16.1328125 L 5 395 L 395 395 L 395 16.1328125 z"/>
</clipPath>
<g clip-path="url(#clip36)">
<g transform="matrix(1, 0, 0, 1, 309.6532287597656, 30.947208404541016)">
<text fill-opacity="1" font-style="normal" font-family="Helvetica" font-weight="normal" stroke="none" fill="#000000" font-size="12" x="0" y="0">g pathw</text>
</g> <!-- transform -->
</g> <!-- clip36 -->
<clipPath id="clip37">
  <path d="M 5 16.1328125 L 5 395 L 395 395 L 395 16.1328125 z"/>
</clipPath>
<g clip-path="url(#clip37)">
<g transform="matrix(1, 0, 0, 1, 307.9452209472656, 45.080020904541016)">
<text fill-opacity="1" font-style="normal" font-family="Helvetica" font-weight="normal" stroke="none" fill="#000000" font-size="12" x="0" y="0">ay of L1 </text>
</g> <!-- transform -->
</g> <!-- clip37 -->
<clipPath id="clip38">
  <path d="M 5 16.1328125 L 5 395 L 395 395 L 395 16.1328125 z"/>
</clipPath>
<g clip-path="url(#clip38)">
<g transform="matrix(1, 0, 0, 1, 310.8924865722656, 59.212833404541016)">
<text fill-opacity="1" font-style="normal" font-family="Helvetica" font-weight="normal" stroke="none" fill="#000000" font-size="12" x="0" y="0">0.98% *</text>
</g> <!-- transform -->
</g> <!-- clip38 -->
<g stroke-width="0.5" fill="none" stroke-opacity="1" stroke="#000000">
  <path d="M 306.2252197265625 27.659151077270508 C 299.45001220703125 113.98235321044922 238.7642059326172 113.98235321044922 233.14340209960938 127.26203918457031"/>
</g> <!-- drawing style -->
<g fill-opacity="1" fill-rule="nonzero" stroke="none" fill="#ffffff">
  <path d="M 308.2252197265625 -28.872098922729492 L 362.6978759765625 -28.872098922729492 L 362.6978759765625 88.19040107727051 L 308.2252197265625 88.19040107727051 L 308.2252197265625 -28.872098922729492 z"/>
</g> <!-- drawing style -->
<g fill-opacity="1" fill-rule="nonzero" stroke="none" fill="#ffffff">
  <path d="M 306.2252197265625 -30.872098922729492 L 360.6978759765625 -30.872098922729492 L 360.6978759765625 86.19040107727051 L 306.2252197265625 86.19040107727051 L 306.2252197265625 -30.872098922729492 z"/>
</g> <!-- drawing style -->
<g stroke-width="0.5" fill="none" stroke-opacity="1" stroke="#ffffff">
  <path d="M 306.2252197265625 -30.872098922729492 L 360.6978759765625 -30.872098922729492 L 360.6978759765625 86.19040107727051 L 306.2252197265625 86.19040107727051 L 306.2252197265625 -30.872098922729492 z"/>
</g> <!-- drawing style -->
<clipPath id="clip39">
  <path d="M 5 16.1328125 L 5 395 L 395 395 L 395 16.1328125 z"/>
</clipPath>
<g clip-path="url(#clip39)">
<g transform="matrix(1, 0, 0, 1, 316.8648681640625, -17.270536422729492)">
<text fill-opacity="1" font-style="normal" font-family="Helvetica" font-weight="normal" stroke="none" fill="#000000" font-size="12" x="0" y="0">TP53 </text>
</g> <!-- transform -->
</g> <!-- clip39 -->
<clipPath id="clip40">
  <path d="M 5 16.1328125 L 5 395 L 395 395 L 395 16.1328125 z"/>
</clipPath>
<g clip-path="url(#clip40)">
<g transform="matrix(1, 0, 0, 1, 308.2252197265625, -3.137723922729492)">
<text fill-opacity="1" font-style="normal" font-family="Helvetica" font-weight="normal" stroke="none" fill="#000000" font-size="12" x="0" y="0">Regulate</text>
</g> <!-- transform -->
</g> <!-- clip40 -->
<clipPath id="clip41">
  <path d="M 5 16.1328125 L 5 395 L 395 395 L 395 16.1328125 z"/>
</clipPath>
<g clip-path="url(#clip41)">
<g transform="matrix(1, 0, 0, 1, 309.0865478515625, 10.995088577270508)">
<text fill-opacity="1" font-style="normal" font-family="Helvetica" font-weight="normal" stroke="none" fill="#000000" font-size="12" x="0" y="0">s Transc</text>
</g> <!-- transform -->
</g> <!-- clip41 -->
<clipPath id="clip42">
  <path d="M 5 16.1328125 L 5 395 L 395 395 L 395 16.1328125 z"/>
</clipPath>
<g clip-path="url(#clip42)">
<g transform="matrix(1, 0, 0, 1, 308.5240478515625, 25.127901077270508)">
<text fill-opacity="1" font-style="normal" font-family="Helvetica" font-weight="normal" stroke="none" fill="#000000" font-size="12" x="0" y="0">ription o</text>
</g> <!-- transform -->
</g> <!-- clip42 -->
<clipPath id="clip43">
  <path d="M 5 16.1328125 L 5 395 L 395 395 L 395 16.1328125 z"/>
</clipPath>
<g clip-path="url(#clip43)">
<g transform="matrix(1, 0, 0, 1, 316.4957275390625, 39.260711669921875)">
<text fill-opacity="1" font-style="normal" font-family="Helvetica" font-weight="normal" stroke="none" fill="#000000" font-size="12" x="0" y="0">f Cell </text>
</g> <!-- transform -->
</g> <!-- clip43 -->
<clipPath id="clip44">
  <path d="M 5 16.1328125 L 5 395 L 395 395 L 395 16.1328125 z"/>
</clipPath>
<g clip-path="url(#clip44)">
<g transform="matrix(1, 0, 0, 1, 314.4449462890625, 53.393524169921875)">
<text fill-opacity="1" font-style="normal" font-family="Helvetica" font-weight="normal" stroke="none" fill="#000000" font-size="12" x="0" y="0">Death </text>
</g> <!-- transform -->
</g> <!-- clip44 -->
<clipPath id="clip45">
  <path d="M 5 16.1328125 L 5 395 L 395 395 L 395 16.1328125 z"/>
</clipPath>
<g clip-path="url(#clip45)">
<g transform="matrix(1, 0, 0, 1, 313.7593994140625, 67.52633666992188)">
<text fill-opacity="1" font-style="normal" font-family="Helvetica" font-weight="normal" stroke="none" fill="#000000" font-size="12" x="0" y="0">Genes </text>
</g> <!-- transform -->
</g> <!-- clip45 -->
<clipPath id="clip46">
  <path d="M 5 16.1328125 L 5 395 L 395 395 L 395 16.1328125 z"/>
</clipPath>
<g clip-path="url(#clip46)">
<g transform="matrix(1, 0, 0, 1, 311.3804931640625, 81.65914916992188)">
<text fill-opacity="1" font-style="normal" font-family="Helvetica" font-weight="normal" stroke="none" fill="#000000" font-size="12" x="0" y="0">0.98% *</text>
</g> <!-- transform -->
</g> <!-- clip46 -->
<g stroke-width="0.5" fill="none" stroke-opacity="1" stroke="#000000">
  <path d="M 306.6313171386719 43.0390625 C 299.45001220703125 117.94974517822266 247.0491485595703 117.94974517822266 240.22702026367188 130.65415954589844"/>
</g> <!-- drawing style -->
<g fill-opacity="1" fill-rule="nonzero" stroke="none" fill="#ffffff">
  <path d="M 308.6313171386719 -6.42578125 L 362.3481140136719 -6.42578125 L 362.3481140136719 96.50390625 L 308.6313171386719 96.50390625 L 308.6313171386719 -6.42578125 z"/>
</g> <!-- drawing style -->
<g fill-opacity="1" fill-rule="nonzero" stroke="none" fill="#ffffff">
  <path d="M 306.6313171386719 -8.42578125 L 360.3481140136719 -8.42578125 L 360.3481140136719 94.50390625 L 306.6313171386719 94.50390625 L 306.6313171386719 -8.42578125 z"/>
</g> <!-- drawing style -->
<g stroke-width="0.5" fill="none" stroke-opacity="1" stroke="#ffffff">
  <path d="M 306.6313171386719 -8.42578125 L 360.3481140136719 -8.42578125 L 360.3481140136719 94.50390625 L 306.6313171386719 94.50390625 L 306.6313171386719 -8.42578125 z"/>
</g> <!-- drawing style -->
<clipPath id="clip47">
  <path d="M 5 16.1328125 L 5 395 L 395 395 L 395 16.1328125 z"/>
</clipPath>
<g clip-path="url(#clip47)">
<g transform="matrix(1, 0, 0, 1, 318.8676452636719, 5.17578125)">
<text fill-opacity="1" font-style="normal" font-family="Helvetica" font-weight="normal" stroke="none" fill="#000000" font-size="12" x="0" y="0">RAF-</text>
</g> <!-- transform -->
</g> <!-- clip47 -->
<clipPath id="clip48">
  <path d="M 5 16.1328125 L 5 395 L 395 395 L 395 16.1328125 z"/>
</clipPath>
<g clip-path="url(#clip48)">
<g transform="matrix(1, 0, 0, 1, 310.0697937011719, 19.30859375)">
<text fill-opacity="1" font-style="normal" font-family="Helvetica" font-weight="normal" stroke="none" fill="#000000" font-size="12" x="0" y="0">indepen</text>
</g> <!-- transform -->
</g> <!-- clip48 -->
<clipPath id="clip49">
  <path d="M 5 16.1328125 L 5 395 L 395 395 L 395 16.1328125 z"/>
</clipPath>
<g clip-path="url(#clip49)">
<g transform="matrix(1, 0, 0, 1, 309.1967468261719, 33.44140625)">
<text fill-opacity="1" font-style="normal" font-family="Helvetica" font-weight="normal" stroke="none" fill="#000000" font-size="12" x="0" y="0">dent MA</text>
</g> <!-- transform -->
</g> <!-- clip49 -->
<clipPath id="clip50">
  <path d="M 5 16.1328125 L 5 395 L 395 395 L 395 16.1328125 z"/>
</clipPath>
<g clip-path="url(#clip50)">
<g transform="matrix(1, 0, 0, 1, 310.3100280761719, 47.57421875)">
<text fill-opacity="1" font-style="normal" font-family="Helvetica" font-weight="normal" stroke="none" fill="#000000" font-size="12" x="0" y="0">PK1/3 a</text>
</g> <!-- transform -->
</g> <!-- clip50 -->
<clipPath id="clip51">
  <path d="M 5 16.1328125 L 5 395 L 395 395 L 395 16.1328125 z"/>
</clipPath>
<g clip-path="url(#clip51)">
<g transform="matrix(1, 0, 0, 1, 308.6313171386719, 61.70703125)">
<text fill-opacity="1" font-style="normal" font-family="Helvetica" font-weight="normal" stroke="none" fill="#000000" font-size="12" x="0" y="0">ctivation</text>
</g> <!-- transform -->
</g> <!-- clip51 -->
<clipPath id="clip52">
  <path d="M 5 16.1328125 L 5 395 L 395 395 L 395 16.1328125 z"/>
</clipPath>
<g clip-path="url(#clip52)">
<g transform="matrix(1, 0, 0, 1, 309.5102233886719, 75.83984375)">
<text fill-opacity="1" font-style="normal" font-family="Helvetica" font-weight="normal" stroke="none" fill="#000000" font-size="12" x="0" y="0">&#x00a0;1.96% *</text>
</g> <!-- transform -->
</g> <!-- clip52 -->
<clipPath id="clip53">
  <path d="M 5 16.1328125 L 5 395 L 395 395 L 395 16.1328125 z"/>
</clipPath>
<g clip-path="url(#clip53)">
<g transform="matrix(1, 0, 0, 1, 330.5981140136719, 89.97265625)">
<text fill-opacity="1" font-style="normal" font-family="Helvetica" font-weight="normal" stroke="none" fill="#000000" font-size="12" x="0" y="0">*</text>
</g> <!-- transform -->
</g> <!-- clip53 -->
<g stroke-width="0.5" fill="none" stroke-opacity="1" stroke="#000000">
  <path d="M 307.14166259765625 58.41897201538086 C 299.45001220703125 124.39562225341797 257.4595947265625 124.39562225341797 249.12796020507812 136.16539001464844"/>
</g> <!-- drawing style -->
<g fill-opacity="1" fill-rule="nonzero" stroke="none" fill="#ffffff">
  <path d="M 309.14166259765625 1.8877220153808594 L 363.39166259765625 1.8877220153808594 L 363.39166259765625 118.95022201538086 L 309.14166259765625 118.95022201538086 L 309.14166259765625 1.8877220153808594 z"/>
</g> <!-- drawing style -->
<g fill-opacity="1" fill-rule="nonzero" stroke="none" fill="#ffffff">
  <path d="M 307.14166259765625 -0.11227798461914062 L 361.39166259765625 -0.11227798461914062 L 361.39166259765625 116.95022201538086 L 307.14166259765625 116.95022201538086 L 307.14166259765625 -0.11227798461914062 z"/>
</g> <!-- drawing style -->
<g stroke-width="0.5" fill="none" stroke-opacity="1" stroke="#ffffff">
  <path d="M 307.14166259765625 -0.11227798461914062 L 361.39166259765625 -0.11227798461914062 L 361.39166259765625 116.95022201538086 L 307.14166259765625 116.95022201538086 L 307.14166259765625 -0.11227798461914062 z"/>
</g> <!-- drawing style -->
<clipPath id="clip54">
  <path d="M 5 16.1328125 L 5 395 L 395 395 L 395 16.1328125 z"/>
</clipPath>
<g clip-path="url(#clip54)">
<g transform="matrix(1, 0, 0, 1, 317.54693603515625, 13.48928451538086)">
<text fill-opacity="1" font-style="normal" font-family="Helvetica" font-weight="normal" stroke="none" fill="#000000" font-size="12" x="0" y="0">rRNA </text>
</g> <!-- transform -->
</g> <!-- clip54 -->
<clipPath id="clip55">
  <path d="M 5 16.1328125 L 5 395 L 395 395 L 395 16.1328125 z"/>
</clipPath>
<g clip-path="url(#clip55)">
<g transform="matrix(1, 0, 0, 1, 309.14166259765625, 27.62209701538086)">
<text fill-opacity="1" font-style="normal" font-family="Helvetica" font-weight="normal" stroke="none" fill="#000000" font-size="12" x="0" y="0">modifica</text>
</g> <!-- transform -->
</g> <!-- clip55 -->
<clipPath id="clip56">
  <path d="M 5 16.1328125 L 5 395 L 395 395 L 395 16.1328125 z"/>
</clipPath>
<g clip-path="url(#clip56)">
<g transform="matrix(1, 0, 0, 1, 313.62408447265625, 41.75490951538086)">
<text fill-opacity="1" font-style="normal" font-family="Helvetica" font-weight="normal" stroke="none" fill="#000000" font-size="12" x="0" y="0">tion in </text>
</g> <!-- transform -->
</g> <!-- clip56 -->
<clipPath id="clip57">
  <path d="M 5 16.1328125 L 5 395 L 395 395 L 395 16.1328125 z"/>
</clipPath>
<g clip-path="url(#clip57)">
<g transform="matrix(1, 0, 0, 1, 323.05767822265625, 55.88772201538086)">
<text fill-opacity="1" font-style="normal" font-family="Helvetica" font-weight="normal" stroke="none" fill="#000000" font-size="12" x="0" y="0">the </text>
</g> <!-- transform -->
</g> <!-- clip57 -->
<clipPath id="clip58">
  <path d="M 5 16.1328125 L 5 395 L 395 395 L 395 16.1328125 z"/>
</clipPath>
<g clip-path="url(#clip58)">
<g transform="matrix(1, 0, 0, 1, 309.98834228515625, 70.02053833007812)">
<text fill-opacity="1" font-style="normal" font-family="Helvetica" font-weight="normal" stroke="none" fill="#000000" font-size="12" x="0" y="0">nucleus </text>
</g> <!-- transform -->
</g> <!-- clip58 -->
<clipPath id="clip59">
  <path d="M 5 16.1328125 L 5 395 L 395 395 L 395 16.1328125 z"/>
</clipPath>
<g clip-path="url(#clip59)">
<g transform="matrix(1, 0, 0, 1, 321.55474853515625, 84.15335083007812)">
<text fill-opacity="1" font-style="normal" font-family="Helvetica" font-weight="normal" stroke="none" fill="#000000" font-size="12" x="0" y="0">and </text>
</g> <!-- transform -->
</g> <!-- clip59 -->
<clipPath id="clip60">
  <path d="M 5 16.1328125 L 5 395 L 395 395 L 395 16.1328125 z"/>
</clipPath>
<g clip-path="url(#clip60)">
<g transform="matrix(1, 0, 0, 1, 311.75201416015625, 98.28616333007812)">
<text fill-opacity="1" font-style="normal" font-family="Helvetica" font-weight="normal" stroke="none" fill="#000000" font-size="12" x="0" y="0">cytosol </text>
</g> <!-- transform -->
</g> <!-- clip60 -->
<clipPath id="clip61">
  <path d="M 5 16.1328125 L 5 395 L 395 395 L 395 16.1328125 z"/>
</clipPath>
<g clip-path="url(#clip61)">
<g transform="matrix(1, 0, 0, 1, 309.29400634765625, 112.41897583007812)">
<text fill-opacity="1" font-style="normal" font-family="Helvetica" font-weight="normal" stroke="none" fill="#000000" font-size="12" x="0" y="0">1.96% **</text>
</g> <!-- transform -->
</g> <!-- clip61 -->
<g stroke-width="0.5" fill="none" stroke-opacity="1" stroke="#000000">
  <path d="M 307.6092529296875 52.599666595458984 C 299.45001220703125 132.0719757080078 266.9990234375 132.0719757080078 257.2841796875 142.72866821289062"/>
</g> <!-- drawing style -->
<g fill-opacity="1" fill-rule="nonzero" stroke="none" fill="#ffffff">
  <path d="M 309.6092529296875 24.334041595458984 L 364.1756591796875 24.334041595458984 L 364.1756591796875 84.86529159545898 L 309.6092529296875 84.86529159545898 L 309.6092529296875 24.334041595458984 z"/>
</g> <!-- drawing style -->
<g fill-opacity="1" fill-rule="nonzero" stroke="none" fill="#ffffff">
  <path d="M 307.6092529296875 22.334041595458984 L 362.1756591796875 22.334041595458984 L 362.1756591796875 82.86529159545898 L 307.6092529296875 82.86529159545898 L 307.6092529296875 22.334041595458984 z"/>
</g> <!-- drawing style -->
<g stroke-width="0.5" fill="none" stroke-opacity="1" stroke="#ffffff">
  <path d="M 307.6092529296875 22.334041595458984 L 362.1756591796875 22.334041595458984 L 362.1756591796875 82.86529159545898 L 307.6092529296875 82.86529159545898 L 307.6092529296875 22.334041595458984 z"/>
</g> <!-- drawing style -->
<clipPath id="clip62">
  <path d="M 5 16.1328125 L 5 395 L 395 395 L 395 16.1328125 z"/>
</clipPath>
<g clip-path="url(#clip62)">
<g transform="matrix(1, 0, 0, 1, 312.0262451171875, 35.935604095458984)">
<text fill-opacity="1" font-style="normal" font-family="Helvetica" font-weight="normal" stroke="none" fill="#000000" font-size="12" x="0" y="0">Tryptop</text>
</g> <!-- transform -->
</g> <!-- clip62 -->
<clipPath id="clip63">
  <path d="M 5 16.1328125 L 5 395 L 395 395 L 395 16.1328125 z"/>
</clipPath>
<g clip-path="url(#clip63)">
<g transform="matrix(1, 0, 0, 1, 310.2889404296875, 50.068416595458984)">
<text fill-opacity="1" font-style="normal" font-family="Helvetica" font-weight="normal" stroke="none" fill="#000000" font-size="12" x="0" y="0">han cata</text>
</g> <!-- transform -->
</g> <!-- clip63 -->
<clipPath id="clip64">
  <path d="M 5 16.1328125 L 5 395 L 395 395 L 395 16.1328125 z"/>
</clipPath>
<g clip-path="url(#clip64)">
<g transform="matrix(1, 0, 0, 1, 309.6092529296875, 64.20123291015625)">
<text fill-opacity="1" font-style="normal" font-family="Helvetica" font-weight="normal" stroke="none" fill="#000000" font-size="12" x="0" y="0">bolism 1</text>
</g> <!-- transform -->
</g> <!-- clip64 -->
<clipPath id="clip65">
  <path d="M 5 16.1328125 L 5 395 L 395 395 L 395 16.1328125 z"/>
</clipPath>
<g clip-path="url(#clip65)">
<g transform="matrix(1, 0, 0, 1, 313.7137451171875, 78.33404541015625)">
<text fill-opacity="1" font-style="normal" font-family="Helvetica" font-weight="normal" stroke="none" fill="#000000" font-size="12" x="0" y="0">.96% **</text>
</g> <!-- transform -->
</g> <!-- clip65 -->
<g stroke-width="0.5" fill="none" stroke-opacity="1" stroke="#000000">
  <path d="M 308.027099609375 60.913169860839844 C 299.45001220703125 140.86241149902344 275.5228271484375 140.86241149902344 264.572021484375 150.24449157714844"/>
</g> <!-- drawing style -->
<g fill-opacity="1" fill-rule="nonzero" stroke="none" fill="#ffffff">
  <path d="M 310.027099609375 -9.750892639160156 L 363.527099609375 -9.750892639160156 L 363.527099609375 135.57723236083984 L 310.027099609375 135.57723236083984 L 310.027099609375 -9.750892639160156 z"/>
</g> <!-- drawing style -->
<g fill-opacity="1" fill-rule="nonzero" stroke="none" fill="#ffffff">
  <path d="M 308.027099609375 -11.750892639160156 L 361.527099609375 -11.750892639160156 L 361.527099609375 133.57723236083984 L 308.027099609375 133.57723236083984 L 308.027099609375 -11.750892639160156 z"/>
</g> <!-- drawing style -->
<g stroke-width="0.5" fill="none" stroke-opacity="1" stroke="#ffffff">
  <path d="M 308.027099609375 -11.750892639160156 L 361.527099609375 -11.750892639160156 L 361.527099609375 133.57723236083984 L 308.027099609375 133.57723236083984 L 308.027099609375 -11.750892639160156 z"/>
</g> <!-- drawing style -->
<clipPath id="clip66">
  <path d="M 5 16.1328125 L 5 395 L 395 395 L 395 16.1328125 z"/>
</clipPath>
<g clip-path="url(#clip66)">
<g transform="matrix(1, 0, 0, 1, 319.463623046875, 1.8506698608398438)">
<text fill-opacity="1" font-style="normal" font-family="Helvetica" font-weight="normal" stroke="none" fill="#000000" font-size="12" x="0" y="0">Anti-</text>
</g> <!-- transform -->
</g> <!-- clip66 -->
<clipPath id="clip67">
  <path d="M 5 16.1328125 L 5 395 L 395 395 L 395 16.1328125 z"/>
</clipPath>
<g clip-path="url(#clip67)">
<g transform="matrix(1, 0, 0, 1, 310.862060546875, 15.983482360839844)">
<text fill-opacity="1" font-style="normal" font-family="Helvetica" font-weight="normal" stroke="none" fill="#000000" font-size="12" x="0" y="0">inflamm</text>
</g> <!-- transform -->
</g> <!-- clip67 -->
<clipPath id="clip68">
  <path d="M 5 16.1328125 L 5 395 L 395 395 L 395 16.1328125 z"/>
</clipPath>
<g clip-path="url(#clip68)">
<g transform="matrix(1, 0, 0, 1, 312.247802734375, 30.116294860839844)">
<text fill-opacity="1" font-style="normal" font-family="Helvetica" font-weight="normal" stroke="none" fill="#000000" font-size="12" x="0" y="0">atory re</text>
</g> <!-- transform -->
</g> <!-- clip68 -->
<clipPath id="clip69">
  <path d="M 5 16.1328125 L 5 395 L 395 395 L 395 16.1328125 z"/>
</clipPath>
<g clip-path="url(#clip69)">
<g transform="matrix(1, 0, 0, 1, 310.027099609375, 44.249107360839844)">
<text fill-opacity="1" font-style="normal" font-family="Helvetica" font-weight="normal" stroke="none" fill="#000000" font-size="12" x="0" y="0">sponse f</text>
</g> <!-- transform -->
</g> <!-- clip69 -->
<clipPath id="clip70">
  <path d="M 5 16.1328125 L 5 395 L 395 395 L 395 16.1328125 z"/>
</clipPath>
<g clip-path="url(#clip70)">
<g transform="matrix(1, 0, 0, 1, 313.035888671875, 58.381919860839844)">
<text fill-opacity="1" font-style="normal" font-family="Helvetica" font-weight="normal" stroke="none" fill="#000000" font-size="12" x="0" y="0">avourin</text>
</g> <!-- transform -->
</g> <!-- clip70 -->
<clipPath id="clip71">
  <path d="M 5 16.1328125 L 5 395 L 395 395 L 395 16.1328125 z"/>
</clipPath>
<g clip-path="url(#clip71)">
<g transform="matrix(1, 0, 0, 1, 314.078857421875, 72.51473236083984)">
<text fill-opacity="1" font-style="normal" font-family="Helvetica" font-weight="normal" stroke="none" fill="#000000" font-size="12" x="0" y="0">g Leish</text>
</g> <!-- transform -->
</g> <!-- clip71 -->
<clipPath id="clip72">
  <path d="M 5 16.1328125 L 5 395 L 395 395 L 395 16.1328125 z"/>
</clipPath>
<g clip-path="url(#clip72)">
<g transform="matrix(1, 0, 0, 1, 311.415771484375, 86.64754486083984)">
<text fill-opacity="1" font-style="normal" font-family="Helvetica" font-weight="normal" stroke="none" fill="#000000" font-size="12" x="0" y="0">mania p</text>
</g> <!-- transform -->
</g> <!-- clip72 -->
<clipPath id="clip73">
  <path d="M 5 16.1328125 L 5 395 L 395 395 L 395 16.1328125 z"/>
</clipPath>
<g clip-path="url(#clip73)">
<g transform="matrix(1, 0, 0, 1, 311.682373046875, 100.78035736083984)">
<text fill-opacity="1" font-style="normal" font-family="Helvetica" font-weight="normal" stroke="none" fill="#000000" font-size="12" x="0" y="0">arasite i</text>
</g> <!-- transform -->
</g> <!-- clip73 -->
<clipPath id="clip74">
  <path d="M 5 16.1328125 L 5 395 L 395 395 L 395 16.1328125 z"/>
</clipPath>
<g clip-path="url(#clip74)">
<g transform="matrix(1, 0, 0, 1, 311.043701171875, 114.91316986083984)">
<text fill-opacity="1" font-style="normal" font-family="Helvetica" font-weight="normal" stroke="none" fill="#000000" font-size="12" x="0" y="0">nfection</text>
</g> <!-- transform -->
</g> <!-- clip74 -->
<clipPath id="clip75">
  <path d="M 5 16.1328125 L 5 395 L 395 395 L 395 16.1328125 z"/>
</clipPath>
<g clip-path="url(#clip75)">
<g transform="matrix(1, 0, 0, 1, 310.797607421875, 129.04598999023438)">
<text fill-opacity="1" font-style="normal" font-family="Helvetica" font-weight="normal" stroke="none" fill="#000000" font-size="12" x="0" y="0">&#x00a0;1.96% *</text>
</g> <!-- transform -->
</g> <!-- clip75 -->
<g stroke-width="0.5" fill="none" stroke-opacity="1" stroke="#000000">
  <path d="M 308.546875 76.29308319091797 C 299.45001220703125 155.84140014648438 286.126220703125 155.84140014648438 273.6379089355469 163.05152893066406"/>
</g> <!-- drawing style -->
<g fill-opacity="1" fill-rule="nonzero" stroke="none" fill="#ffffff">
  <path d="M 310.546875 40.96105194091797 L 364.4921875 40.96105194091797 L 364.4921875 115.62511444091797 L 310.546875 115.62511444091797 L 310.546875 40.96105194091797 z"/>
</g> <!-- drawing style -->
<g fill-opacity="1" fill-rule="nonzero" stroke="none" fill="#ffffff">
  <path d="M 308.546875 38.96105194091797 L 362.4921875 38.96105194091797 L 362.4921875 113.62511444091797 L 308.546875 113.62511444091797 L 308.546875 38.96105194091797 z"/>
</g> <!-- drawing style -->
<g stroke-width="0.5" fill="none" stroke-opacity="1" stroke="#ffffff">
  <path d="M 308.546875 38.96105194091797 L 362.4921875 38.96105194091797 L 362.4921875 113.62511444091797 L 308.546875 113.62511444091797 L 308.546875 38.96105194091797 z"/>
</g> <!-- drawing style -->
<clipPath id="clip76">
  <path d="M 5 16.1328125 L 5 395 L 395 395 L 395 16.1328125 z"/>
</clipPath>
<g clip-path="url(#clip76)">
<g transform="matrix(1, 0, 0, 1, 320.0625, 52.56261444091797)">
<text fill-opacity="1" font-style="normal" font-family="Helvetica" font-weight="normal" stroke="none" fill="#000000" font-size="12" x="0" y="0">NGF-</text>
</g> <!-- transform -->
</g> <!-- clip76 -->
<clipPath id="clip77">
  <path d="M 5 16.1328125 L 5 395 L 395 395 L 395 16.1328125 z"/>
</clipPath>
<g clip-path="url(#clip77)">
<g transform="matrix(1, 0, 0, 1, 311.865234375, 66.69542694091797)">
<text fill-opacity="1" font-style="normal" font-family="Helvetica" font-weight="normal" stroke="none" fill="#000000" font-size="12" x="0" y="0">stimulat</text>
</g> <!-- transform -->
</g> <!-- clip77 -->
<clipPath id="clip78">
  <path d="M 5 16.1328125 L 5 395 L 395 395 L 395 16.1328125 z"/>
</clipPath>
<g clip-path="url(#clip78)">
<g transform="matrix(1, 0, 0, 1, 311.70703125, 80.82823944091797)">
<text fill-opacity="1" font-style="normal" font-family="Helvetica" font-weight="normal" stroke="none" fill="#000000" font-size="12" x="0" y="0">ed trans</text>
</g> <!-- transform -->
</g> <!-- clip78 -->
<clipPath id="clip79">
  <path d="M 5 16.1328125 L 5 395 L 395 395 L 395 16.1328125 z"/>
</clipPath>
<g clip-path="url(#clip79)">
<g transform="matrix(1, 0, 0, 1, 311.1943359375, 94.96105194091797)">
<text fill-opacity="1" font-style="normal" font-family="Helvetica" font-weight="normal" stroke="none" fill="#000000" font-size="12" x="0" y="0">cription </text>
</g> <!-- transform -->
</g> <!-- clip79 -->
<clipPath id="clip80">
  <path d="M 5 16.1328125 L 5 395 L 395 395 L 395 16.1328125 z"/>
</clipPath>
<g clip-path="url(#clip80)">
<g transform="matrix(1, 0, 0, 1, 310.546875, 109.09386444091797)">
<text fill-opacity="1" font-style="normal" font-family="Helvetica" font-weight="normal" stroke="none" fill="#000000" font-size="12" x="0" y="0">3.92% **</text>
</g> <!-- transform -->
</g> <!-- clip80 -->
<g stroke-width="0.5" fill="none" stroke-opacity="1" stroke="#000000">
  <path d="M 309.1630554199219 63.40736770629883 C 299.45001220703125 193.3451690673828 298.69622802734375 193.3451690673828 284.38525390625 195.11724853515625"/>
</g> <!-- drawing style -->
<g fill-opacity="1" fill-rule="nonzero" stroke="none" fill="#ffffff">
  <path d="M 311.1630554199219 21.008930206298828 L 365.0732116699219 21.008930206298828 L 365.0732116699219 109.80580520629883 L 311.1630554199219 109.80580520629883 L 311.1630554199219 21.008930206298828 z"/>
</g> <!-- drawing style -->
<g fill-opacity="1" fill-rule="nonzero" stroke="none" fill="#ffffff">
  <path d="M 309.1630554199219 19.008930206298828 L 363.0732116699219 19.008930206298828 L 363.0732116699219 107.80580520629883 L 309.1630554199219 107.80580520629883 L 309.1630554199219 19.008930206298828 z"/>
</g> <!-- drawing style -->
<g stroke-width="0.5" fill="none" stroke-opacity="1" stroke="#ffffff">
  <path d="M 309.1630554199219 19.008930206298828 L 363.0732116699219 19.008930206298828 L 363.0732116699219 107.80580520629883 L 309.1630554199219 107.80580520629883 L 309.1630554199219 19.008930206298828 z"/>
</g> <!-- drawing style -->
<clipPath id="clip81">
  <path d="M 5 16.1328125 L 5 395 L 395 395 L 395 16.1328125 z"/>
</clipPath>
<g clip-path="url(#clip81)">
<g transform="matrix(1, 0, 0, 1, 313.9374694824219, 32.61049270629883)">
<text fill-opacity="1" font-style="normal" font-family="Helvetica" font-weight="normal" stroke="none" fill="#000000" font-size="12" x="0" y="0">Cytokin</text>
</g> <!-- transform -->
</g> <!-- clip81 -->
<clipPath id="clip82">
  <path d="M 5 16.1328125 L 5 395 L 395 395 L 395 16.1328125 z"/>
</clipPath>
<g clip-path="url(#clip82)">
<g transform="matrix(1, 0, 0, 1, 311.9247741699219, 46.74330520629883)">
<text fill-opacity="1" font-style="normal" font-family="Helvetica" font-weight="normal" stroke="none" fill="#000000" font-size="12" x="0" y="0">e-cytoki</text>
</g> <!-- transform -->
</g> <!-- clip82 -->
<clipPath id="clip83">
  <path d="M 5 16.1328125 L 5 395 L 395 395 L 395 16.1328125 z"/>
</clipPath>
<g clip-path="url(#clip83)">
<g transform="matrix(1, 0, 0, 1, 311.1630554199219, 60.87611770629883)">
<text fill-opacity="1" font-style="normal" font-family="Helvetica" font-weight="normal" stroke="none" fill="#000000" font-size="12" x="0" y="0">ne recep</text>
</g> <!-- transform -->
</g> <!-- clip83 -->
<clipPath id="clip84">
  <path d="M 5 16.1328125 L 5 395 L 395 395 L 395 16.1328125 z"/>
</clipPath>
<g clip-path="url(#clip84)">
<g transform="matrix(1, 0, 0, 1, 312.3349304199219, 75.00892639160156)">
<text fill-opacity="1" font-style="normal" font-family="Helvetica" font-weight="normal" stroke="none" fill="#000000" font-size="12" x="0" y="0">tor inter</text>
</g> <!-- transform -->
</g> <!-- clip84 -->
<clipPath id="clip85">
  <path d="M 5 16.1328125 L 5 395 L 395 395 L 395 16.1328125 z"/>
</clipPath>
<g clip-path="url(#clip85)">
<g transform="matrix(1, 0, 0, 1, 312.6513366699219, 89.14173889160156)">
<text fill-opacity="1" font-style="normal" font-family="Helvetica" font-weight="normal" stroke="none" fill="#000000" font-size="12" x="0" y="0">action 8</text>
</g> <!-- transform -->
</g> <!-- clip85 -->
<clipPath id="clip86">
  <path d="M 5 16.1328125 L 5 395 L 395 395 L 395 16.1328125 z"/>
</clipPath>
<g clip-path="url(#clip86)">
<g transform="matrix(1, 0, 0, 1, 314.9394226074219, 103.27455139160156)">
<text fill-opacity="1" font-style="normal" font-family="Helvetica" font-weight="normal" stroke="none" fill="#000000" font-size="12" x="0" y="0">.82% **</text>
</g> <!-- transform -->
</g> <!-- clip86 -->
<g stroke-width="0.5" fill="none" stroke-opacity="1" stroke="#000000">
  <path d="M 308.61993408203125 142.3849334716797 C 299.45001220703125 252.6155548095703 287.6166687011719 252.6155548095703 274.9122314453125 245.79342651367188"/>
</g> <!-- drawing style -->
<g fill-opacity="1" fill-rule="nonzero" stroke="none" fill="#ffffff">
  <path d="M 310.61993408203125 15.189620971679688 L 365.18634033203125 15.189620971679688 L 365.18634033203125 273.5802459716797 L 310.61993408203125 273.5802459716797 L 310.61993408203125 15.189620971679688 z"/>
</g> <!-- drawing style -->
<g fill-opacity="1" fill-rule="nonzero" stroke="none" fill="#ffffff">
  <path d="M 308.61993408203125 13.189620971679688 L 363.18634033203125 13.189620971679688 L 363.18634033203125 271.5802459716797 L 308.61993408203125 271.5802459716797 L 308.61993408203125 13.189620971679688 z"/>
</g> <!-- drawing style -->
<g stroke-width="0.5" fill="none" stroke-opacity="1" stroke="#ffffff">
  <path d="M 308.61993408203125 13.189620971679688 L 363.18634033203125 13.189620971679688 L 363.18634033203125 271.5802459716797 L 308.61993408203125 271.5802459716797 L 308.61993408203125 13.189620971679688 z"/>
</g> <!-- drawing style -->
<clipPath id="clip87">
  <path d="M 5 16.1328125 L 5 395 L 395 395 L 395 16.1328125 z"/>
</clipPath>
<g clip-path="url(#clip87)">
<g transform="matrix(1, 0, 0, 1, 311.29669189453125, 26.791183471679688)">
<text fill-opacity="1" font-style="normal" font-family="Helvetica" font-weight="normal" stroke="none" fill="#000000" font-size="12" x="0" y="0">adaptive</text>
</g> <!-- transform -->
</g> <!-- clip87 -->
<clipPath id="clip88">
  <path d="M 5 16.1328125 L 5 395 L 395 395 L 395 16.1328125 z"/>
</clipPath>
<g clip-path="url(#clip88)">
<g transform="matrix(1, 0, 0, 1, 313.61993408203125, 40.92399597167969)">
<text fill-opacity="1" font-style="normal" font-family="Helvetica" font-weight="normal" stroke="none" fill="#000000" font-size="12" x="0" y="0">&#x00a0;immun</text>
</g> <!-- transform -->
</g> <!-- clip88 -->
<clipPath id="clip89">
  <path d="M 5 16.1328125 L 5 395 L 395 395 L 395 16.1328125 z"/>
</clipPath>
<g clip-path="url(#clip89)">
<g transform="matrix(1, 0, 0, 1, 310.61993408203125, 55.05680847167969)">
<text fill-opacity="1" font-style="normal" font-family="Helvetica" font-weight="normal" stroke="none" fill="#000000" font-size="12" x="0" y="0">e respon</text>
</g> <!-- transform -->
</g> <!-- clip89 -->
<clipPath id="clip90">
  <path d="M 5 16.1328125 L 5 395 L 395 395 L 395 16.1328125 z"/>
</clipPath>
<g clip-path="url(#clip90)">
<g transform="matrix(1, 0, 0, 1, 314.11212158203125, 69.18962097167969)">
<text fill-opacity="1" font-style="normal" font-family="Helvetica" font-weight="normal" stroke="none" fill="#000000" font-size="12" x="0" y="0">se base</text>
</g> <!-- transform -->
</g> <!-- clip90 -->
<clipPath id="clip91">
  <path d="M 5 16.1328125 L 5 395 L 395 395 L 395 16.1328125 z"/>
</clipPath>
<g clip-path="url(#clip91)">
<g transform="matrix(1, 0, 0, 1, 320.92071533203125, 83.32243347167969)">
<text fill-opacity="1" font-style="normal" font-family="Helvetica" font-weight="normal" stroke="none" fill="#000000" font-size="12" x="0" y="0">d on </text>
</g> <!-- transform -->
</g> <!-- clip91 -->
<clipPath id="clip92">
  <path d="M 5 16.1328125 L 5 395 L 395 395 L 395 16.1328125 z"/>
</clipPath>
<g clip-path="url(#clip92)">
<g transform="matrix(1, 0, 0, 1, 311.29376220703125, 97.45524597167969)">
<text fill-opacity="1" font-style="normal" font-family="Helvetica" font-weight="normal" stroke="none" fill="#000000" font-size="12" x="0" y="0">somatic </text>
</g> <!-- transform -->
</g> <!-- clip92 -->
<clipPath id="clip93">
  <path d="M 5 16.1328125 L 5 395 L 395 395 L 395 16.1328125 z"/>
</clipPath>
<g clip-path="url(#clip93)">
<g transform="matrix(1, 0, 0, 1, 312.23419189453125, 111.58805847167969)">
<text fill-opacity="1" font-style="normal" font-family="Helvetica" font-weight="normal" stroke="none" fill="#000000" font-size="12" x="0" y="0">recombi</text>
</g> <!-- transform -->
</g> <!-- clip93 -->
<clipPath id="clip94">
  <path d="M 5 16.1328125 L 5 395 L 395 395 L 395 16.1328125 z"/>
</clipPath>
<g clip-path="url(#clip94)">
<g transform="matrix(1, 0, 0, 1, 311.89434814453125, 125.72087097167969)">
<text fill-opacity="1" font-style="normal" font-family="Helvetica" font-weight="normal" stroke="none" fill="#000000" font-size="12" x="0" y="0">nation o</text>
</g> <!-- transform -->
</g> <!-- clip94 -->
<clipPath id="clip95">
  <path d="M 5 16.1328125 L 5 395 L 395 395 L 395 16.1328125 z"/>
</clipPath>
<g clip-path="url(#clip95)">
<g transform="matrix(1, 0, 0, 1, 311.41387939453125, 139.8536834716797)">
<text fill-opacity="1" font-style="normal" font-family="Helvetica" font-weight="normal" stroke="none" fill="#000000" font-size="12" x="0" y="0">f immun</text>
</g> <!-- transform -->
</g> <!-- clip95 -->
<clipPath id="clip96">
  <path d="M 5 16.1328125 L 5 395 L 395 395 L 395 16.1328125 z"/>
</clipPath>
<g clip-path="url(#clip96)">
<g transform="matrix(1, 0, 0, 1, 312.42755126953125, 153.9864959716797)">
<text fill-opacity="1" font-style="normal" font-family="Helvetica" font-weight="normal" stroke="none" fill="#000000" font-size="12" x="0" y="0">e recept</text>
</g> <!-- transform -->
</g> <!-- clip96 -->
<clipPath id="clip97">
  <path d="M 5 16.1328125 L 5 395 L 395 395 L 395 16.1328125 z"/>
</clipPath>
<g clip-path="url(#clip97)">
<g transform="matrix(1, 0, 0, 1, 311.59259033203125, 168.1193084716797)">
<text fill-opacity="1" font-style="normal" font-family="Helvetica" font-weight="normal" stroke="none" fill="#000000" font-size="12" x="0" y="0">ors built</text>
</g> <!-- transform -->
</g> <!-- clip97 -->
<clipPath id="clip98">
  <path d="M 5 16.1328125 L 5 395 L 395 395 L 395 16.1328125 z"/>
</clipPath>
<g clip-path="url(#clip98)">
<g transform="matrix(1, 0, 0, 1, 318.15802001953125, 182.2521209716797)">
<text fill-opacity="1" font-style="normal" font-family="Helvetica" font-weight="normal" stroke="none" fill="#000000" font-size="12" x="0" y="0">&#x00a0;from </text>
</g> <!-- transform -->
</g> <!-- clip98 -->
<clipPath id="clip99">
  <path d="M 5 16.1328125 L 5 395 L 395 395 L 395 16.1328125 z"/>
</clipPath>
<g clip-path="url(#clip99)">
<g transform="matrix(1, 0, 0, 1, 311.83282470703125, 196.3849334716797)">
<text fill-opacity="1" font-style="normal" font-family="Helvetica" font-weight="normal" stroke="none" fill="#000000" font-size="12" x="0" y="0">immuno</text>
</g> <!-- transform -->
</g> <!-- clip99 -->
<clipPath id="clip100">
  <path d="M 5 16.1328125 L 5 395 L 395 395 L 395 16.1328125 z"/>
</clipPath>
<g clip-path="url(#clip100)">
<g transform="matrix(1, 0, 0, 1, 312.04962158203125, 210.5177459716797)">
<text fill-opacity="1" font-style="normal" font-family="Helvetica" font-weight="normal" stroke="none" fill="#000000" font-size="12" x="0" y="0">globulin</text>
</g> <!-- transform -->
</g> <!-- clip100 -->
<clipPath id="clip101">
  <path d="M 5 16.1328125 L 5 395 L 395 395 L 395 16.1328125 z"/>
</clipPath>
<g clip-path="url(#clip101)">
<g transform="matrix(1, 0, 0, 1, 312.12872314453125, 224.6505584716797)">
<text fill-opacity="1" font-style="normal" font-family="Helvetica" font-weight="normal" stroke="none" fill="#000000" font-size="12" x="0" y="0">&#x00a0;superfa</text>
</g> <!-- transform -->
</g> <!-- clip101 -->
<clipPath id="clip102">
  <path d="M 5 16.1328125 L 5 395 L 395 395 L 395 16.1328125 z"/>
</clipPath>
<g clip-path="url(#clip102)">
<g transform="matrix(1, 0, 0, 1, 314.33770751953125, 238.7833709716797)">
<text fill-opacity="1" font-style="normal" font-family="Helvetica" font-weight="normal" stroke="none" fill="#000000" font-size="12" x="0" y="0">mily do</text>
</g> <!-- transform -->
</g> <!-- clip102 -->
<clipPath id="clip103">
  <path d="M 5 16.1328125 L 5 395 L 395 395 L 395 16.1328125 z"/>
</clipPath>
<g clip-path="url(#clip103)">
<g transform="matrix(1, 0, 0, 1, 312.77911376953125, 252.9161834716797)">
<text fill-opacity="1" font-style="normal" font-family="Helvetica" font-weight="normal" stroke="none" fill="#000000" font-size="12" x="0" y="0">mains 1</text>
</g> <!-- transform -->
</g> <!-- clip103 -->
<clipPath id="clip104">
  <path d="M 5 16.1328125 L 5 395 L 395 395 L 395 16.1328125 z"/>
</clipPath>
<g clip-path="url(#clip104)">
<g transform="matrix(1, 0, 0, 1, 310.93048095703125, 267.04901123046875)">
<text fill-opacity="1" font-style="normal" font-family="Helvetica" font-weight="normal" stroke="none" fill="#000000" font-size="12" x="0" y="0">0.78% **</text>
</g> <!-- transform -->
</g> <!-- clip104 -->
<g stroke-width="0.5" fill="none" stroke-opacity="1" stroke="#000000">
  <path d="M 305.9452209472656 270.82733154296875 C 299.45001220703125 299.3631286621094 233.0526885986328 299.3631286621094 228.26004028320312 285.7626037597656"/>
</g> <!-- drawing style -->
<g fill-opacity="1" fill-rule="nonzero" stroke="none" fill="#ffffff">
  <path d="M 307.9452209472656 178.96405029296875 L 361.9960021972656 178.96405029296875 L 361.9960021972656 366.69061279296875 L 307.9452209472656 366.69061279296875 L 307.9452209472656 178.96405029296875 z"/>
</g> <!-- drawing style -->
<g fill-opacity="1" fill-rule="nonzero" stroke="none" fill="#ffffff">
  <path d="M 305.9452209472656 176.96405029296875 L 359.9960021972656 176.96405029296875 L 359.9960021972656 364.69061279296875 L 305.9452209472656 364.69061279296875 L 305.9452209472656 176.96405029296875 z"/>
</g> <!-- drawing style -->
<g stroke-width="0.5" fill="none" stroke-opacity="1" stroke="#ffffff">
  <path d="M 305.9452209472656 176.96405029296875 L 359.9960021972656 176.96405029296875 L 359.9960021972656 364.69061279296875 L 305.9452209472656 364.69061279296875 L 305.9452209472656 176.96405029296875 z"/>
</g> <!-- drawing style -->
<clipPath id="clip105">
  <path d="M 5 16.1328125 L 5 395 L 395 395 L 395 16.1328125 z"/>
</clipPath>
<g clip-path="url(#clip105)">
<g transform="matrix(1, 0, 0, 1, 319.6288146972656, 190.56561279296875)">
<text fill-opacity="1" font-style="normal" font-family="Helvetica" font-weight="normal" stroke="none" fill="#000000" font-size="12" x="0" y="0">TNF </text>
</g> <!-- transform -->
</g> <!-- clip105 -->
<clipPath id="clip106">
  <path d="M 5 16.1328125 L 5 395 L 395 395 L 395 16.1328125 z"/>
</clipPath>
<g clip-path="url(#clip106)">
<g transform="matrix(1, 0, 0, 1, 308.5956115722656, 204.69842529296875)">
<text fill-opacity="1" font-style="normal" font-family="Helvetica" font-weight="normal" stroke="none" fill="#000000" font-size="12" x="0" y="0">receptor</text>
</g> <!-- transform -->
</g> <!-- clip106 -->
<clipPath id="clip107">
  <path d="M 5 16.1328125 L 5 395 L 395 395 L 395 16.1328125 z"/>
</clipPath>
<g clip-path="url(#clip107)">
<g transform="matrix(1, 0, 0, 1, 309.1961975097656, 218.83123779296875)">
<text fill-opacity="1" font-style="normal" font-family="Helvetica" font-weight="normal" stroke="none" fill="#000000" font-size="12" x="0" y="0">&#x00a0;superfa</text>
</g> <!-- transform -->
</g> <!-- clip107 -->
<clipPath id="clip108">
  <path d="M 5 16.1328125 L 5 395 L 395 395 L 395 16.1328125 z"/>
</clipPath>
<g clip-path="url(#clip108)">
<g transform="matrix(1, 0, 0, 1, 308.6893615722656, 232.96405029296875)">
<text fill-opacity="1" font-style="normal" font-family="Helvetica" font-weight="normal" stroke="none" fill="#000000" font-size="12" x="0" y="0">mily (TN</text>
</g> <!-- transform -->
</g> <!-- clip108 -->
<clipPath id="clip109">
  <path d="M 5 16.1328125 L 5 395 L 395 395 L 395 16.1328125 z"/>
</clipPath>
<g clip-path="url(#clip109)">
<g transform="matrix(1, 0, 0, 1, 310.5116271972656, 247.09686279296875)">
<text fill-opacity="1" font-style="normal" font-family="Helvetica" font-weight="normal" stroke="none" fill="#000000" font-size="12" x="0" y="0">FSF) me</text>
</g> <!-- transform -->
</g> <!-- clip109 -->
<clipPath id="clip110">
  <path d="M 5 16.1328125 L 5 395 L 395 395 L 395 16.1328125 z"/>
</clipPath>
<g clip-path="url(#clip110)">
<g transform="matrix(1, 0, 0, 1, 312.8377990722656, 261.22967529296875)">
<text fill-opacity="1" font-style="normal" font-family="Helvetica" font-weight="normal" stroke="none" fill="#000000" font-size="12" x="0" y="0">mbers </text>
</g> <!-- transform -->
</g> <!-- clip110 -->
<clipPath id="clip111">
  <path d="M 5 16.1328125 L 5 395 L 395 395 L 395 16.1328125 z"/>
</clipPath>
<g clip-path="url(#clip111)">
<g transform="matrix(1, 0, 0, 1, 311.2235412597656, 275.36248779296875)">
<text fill-opacity="1" font-style="normal" font-family="Helvetica" font-weight="normal" stroke="none" fill="#000000" font-size="12" x="0" y="0">mediati</text>
</g> <!-- transform -->
</g> <!-- clip111 -->
<clipPath id="clip112">
  <path d="M 5 16.1328125 L 5 395 L 395 395 L 395 16.1328125 z"/>
</clipPath>
<g clip-path="url(#clip112)">
<g transform="matrix(1, 0, 0, 1, 309.0028381347656, 289.49530029296875)">
<text fill-opacity="1" font-style="normal" font-family="Helvetica" font-weight="normal" stroke="none" fill="#000000" font-size="12" x="0" y="0">ng non-</text>
</g> <!-- transform -->
</g> <!-- clip112 -->
<clipPath id="clip113">
  <path d="M 5 16.1328125 L 5 395 L 395 395 L 395 16.1328125 z"/>
</clipPath>
<g clip-path="url(#clip113)">
<g transform="matrix(1, 0, 0, 1, 310.6434631347656, 303.62811279296875)">
<text fill-opacity="1" font-style="normal" font-family="Helvetica" font-weight="normal" stroke="none" fill="#000000" font-size="12" x="0" y="0">canonic</text>
</g> <!-- transform -->
</g> <!-- clip113 -->
<clipPath id="clip114">
  <path d="M 5 16.1328125 L 5 395 L 395 395 L 395 16.1328125 z"/>
</clipPath>
<g clip-path="url(#clip114)">
<g transform="matrix(1, 0, 0, 1, 307.9452209472656, 317.76092529296875)">
<text fill-opacity="1" font-style="normal" font-family="Helvetica" font-weight="normal" stroke="none" fill="#000000" font-size="12" x="0" y="0">al NF-kB</text>
</g> <!-- transform -->
</g> <!-- clip114 -->
<clipPath id="clip115">
  <path d="M 5 16.1328125 L 5 395 L 395 395 L 395 16.1328125 z"/>
</clipPath>
<g clip-path="url(#clip115)">
<g transform="matrix(1, 0, 0, 1, 310.0780334472656, 331.89373779296875)">
<text fill-opacity="1" font-style="normal" font-family="Helvetica" font-weight="normal" stroke="none" fill="#000000" font-size="12" x="0" y="0">&#x00a0;pathwa</text>
</g> <!-- transform -->
</g> <!-- clip115 -->
<clipPath id="clip116">
  <path d="M 5 16.1328125 L 5 395 L 395 395 L 395 16.1328125 z"/>
</clipPath>
<g clip-path="url(#clip116)">
<g transform="matrix(1, 0, 0, 1, 310.8631896972656, 346.02655029296875)">
<text fill-opacity="1" font-style="normal" font-family="Helvetica" font-weight="normal" stroke="none" fill="#000000" font-size="12" x="0" y="0">y 12.75</text>
</g> <!-- transform -->
</g> <!-- clip116 -->
<clipPath id="clip117">
  <path d="M 5 16.1328125 L 5 395 L 395 395 L 395 16.1328125 z"/>
</clipPath>
<g clip-path="url(#clip117)">
<g transform="matrix(1, 0, 0, 1, 321.2782287597656, 360.15936279296875)">
<text fill-opacity="1" font-style="normal" font-family="Helvetica" font-weight="normal" stroke="none" fill="#000000" font-size="12" x="0" y="0">% **</text>
</g> <!-- transform -->
</g> <!-- clip117 -->
<g stroke-width="0.5" fill="none" stroke-opacity="1" stroke="#ffffff">
  <path d="M 5 16.1328125 L 395 16.1328125 L 395 395 L 5 395 L 5 16.1328125 z"/>
</g> <!-- drawing style -->
</g> <!-- default stroke -->
</svg> <!-- bounding box -->
