colName,sampleName,stim,sType
R1_IFN,R1,IFN,Family
R2_IFN,R2,IFN,Family
C2_IFN,C2,IFN,Control
C3_IFN,C3,IFN,Control
C1_IFN,C1,IFN,Control
P_IFN,P,IFN,Patient
R1_PMA,R1,PMA,Family
R2_PMA,R2,PMA,Family
C1_PMA,C1,PMA,Control
C2_PMA,C2,PMA,Control
C3_PMA,C3,PMA,Control
P_PMA,P,PMA,Patient
